[Project]
Toolset=AVR
FormatVersion=2
Files=1
OpenedFiles=1
Top0=213
Left0=434
Height0=341
Width0=497
Active0=0
State0=0
OF1=main.c
Top1=-30
Left1=-8
Height1=623
Width1=1193
Row1=543
Collumn1=23
Active1=1
State1=2
OF2=C:\cvavreval\inc\stdio.h
Top2=192
Left2=434
Height2=341
Width2=497
Row2=0
Collumn2=0
Active2=1
State2=0
OF3=c:\cvavr\inc\stdarg.h
Top3=192
Left3=434
Height3=341
Width3=497
Row3=0
Collumn3=0
Active3=0
State3=0
Column1=0
TimeStamp1=1151233368
AllowDisplayFunctionCallTree=1
Column2=0
TimeStamp2=1028408668
Column3=0
TimeStamp3=745478848
F1=main.c
CleanUp=2
EditorPanelMode=0
ActiveEditorPanel=0
EditorPanel0=0
PageIndex0=0
EditorPanel1=0
PageIndex1=1
EditorPanel2=0
PageIndex2=2
[Compiler]
Chip=ATmega32
CPUClock=16000000
MemoryModel=1
OptimizeSize=1
OptimizationLevel=2
PrintfFeatures=1
ScanfFeatures=0
DataStackSize=800
RAMStart=96
RAMEnd=2143
PgmMemSize=32768
XRAMSize=0
XRAMWaitState=0
HeapSize=0
InterruptVectorsNumber=21
InterruptVectorJump=1
ResetVector=0
ExternalStartupFile=0
ExternalStartupFileWarning=0
BitVariablesSize=16
PromoteCharToInt=0
CharIsUnsigned=1
8BitEnums=1
EnhancedCoreInstructions=1
AutomaticRegisterAllocation=1
SmartRegisterAllocation=1
WordAlignFLASHStructMembers=0
PreprocessorOutput=1
StackEndMarkers=0
Warnings=1
WarningConstantRange=0
WarningPossibleLossOfPrecision=0
WarningArrayIndex=1
WarningGlobalVariableAddress=1
WarningInterruptVector=1
WarningUninitializedFLASH=1
WarningUninitializedEEPROM=1
WarningSuspiciousPointerConversion=1
WarningRegisterAllocated=1
WarningMacroRedefined=1
WarningFunctionReturn=1
WarningUnreferencedFunction=1
WarningUnreferencedFunctionParameter=1
WarningUnreferencedLocalVariable=1
WarningUnreferencedGlobalVariable=1
WarningUnreferencedLabel=1
WarningEmptyLine=1
WarningExpressionHasNoEffect=1
WarningUnknownEscapeSequence=1
WarningShiftResult0=1
Warning8BitAdditionOverflow=1
Warning8BitMultiplicationOverflow=1
Warning16BitAdditionOverflow=1
Warning16BitMultiplicationOverflow=1
WarningPossiblyIncorrectAssignment=1
WarningPointlessComparison=1
WarningConstCtrlExpr=1
WarningUndefinedSymbol=1
WarningCantAllocVarToReg=1
WarningDataStackUsage=1
WarningHardwareStackLow=1
DebugBootLoader=0
Build=341
UseEEPROMLocation0=1
RebuildAll=0
LinkageInformationPresent=1
ExternalInterruptVectors=0
IncludePath0=
IncludePath1=
IncludePath2=
IncludePath3=
IncludePath4=
IncludePath5=
IncludePath6=
IncludePath7=
IncludePath8=
IncludePath9=
IncludePath10=
IncludePath11=
IncludePath12=
IncludePath13=
IncludePath14=
IncludePath15=
IncludePath16=
IncludePath17=
IncludePath18=
IncludePath19=
IncludePath20=
IncludePath21=
IncludePath22=
IncludePath23=
IncludePath24=
IncludePath25=
IncludePath26=
IncludePath27=
IncludePath28=
IncludePath29=
IncludePath30=
IncludePath31=
LibraryPath0=
LibraryPath1=
LibraryPath2=
LibraryPath3=
LibraryPath4=
LibraryPath5=
LibraryPath6=
LibraryPath7=
LibraryPath8=
LibraryPath9=
LibraryPath10=
LibraryPath11=
LibraryPath12=
LibraryPath13=
LibraryPath14=
LibraryPath15=
LibraryPath16=
LibraryPath17=
LibraryPath18=
LibraryPath19=
LibraryPath20=
LibraryPath21=
LibraryPath22=
LibraryPath23=
LibraryPath24=
LibraryPath25=
LibraryPath26=
LibraryPath27=
LibraryPath28=
LibraryPath29=
LibraryPath30=
LibraryPath31=
[DefinedSymbols]
Count=0
[Assembler]
OutputFormat=1
TerminalIO=0
[BeforeMake]
RunUserProg=0
UserProgPath=
UserProgCmdLine=
UserProgWorkDir=
[AfterMake]
ProgrammChip=0
MergeROMFile=0
ROMFilePath=
SCKFrequency=460800
LockBits=0
BootLockBits0=0
BootLockBits1=0
ProgramFuseBits=1
Fuse1=0
Fuse2=0
Fuse3=0
Fuse4=0
Fuse5=0
Fuse6=0
Fuse7=0
Fuse8=0
Fuse9=0
Fuse10=0
Fuse11=0
Fuse12=0
Fuse13=0
Fuse14=0
Fuse15=0
Fuse16=0
Fuse17=0
Fuse18=0
Fuse19=0
Fuse20=0
Fuse21=0
Fuse22=0
Fuse23=0
Fuse24=0
CheckSignature=1
CheckErasure=0
PreserveEEPROM=0
VerifyProgramming=1
ProgrammingCounter=0
RunUserProg=0
UserProgPath=
UserProgCmdLine=
UserProgWorkDir=
[Bookmarks0]
Row=0
Column=0
ScrollPosX=0
ScrollPosY=0
TimeStamp=1151233800
[BookmarksFoldedCode]
Files=2
F1=main.c
F2=C:\cvavreval\inc\stdio.h
[Bookmarks1]
TimeStamp=1151233786
Row=0
Column=0
ScrollPosX=0
ScrollPosY=0
BK0=-1
BK1=-1
BK2=-1
BK3=-1
BK4=-1
BK5=-1
BK6=-1
BK7=-1
BK8=-1
BK9=-1
[Bookmarks2]
TimeStamp=1028408668
Row=0
Column=0
ScrollPosX=0
ScrollPosY=0
BK0=-1
BK1=-1
BK2=-1
BK3=-1
BK4=-1
BK5=-1
BK6=-1
BK7=-1
BK8=-1
BK9=-1
[FoldedCode2]
Blocks=0
[HeadersList]
Files=1
F1=D:\My Job\PT Dot System Indonesia\Automatic Tol Payment\Source Code\VGATE\VGATE grouped v1.4 - Uji Fungsi 10x resend\main.c
[Header1]
Files=4
F1=C:\cvavreval\inc\mega32a.h
F2=C:\cvavreval\inc\delay.h
F3=C:\cvavreval\inc\stdio.h
F4=C:\cvavreval\inc\stdarg.h
[FoldedCode1]
Blocks=0
